^C:\USERS\RISOVAXA\DOCUMENTS\VISUAL STUDIO 2017\PROJECTS\PRIMES\FINAL\PRIMETEST\STDAFX.CPP
/c /I"C:\PROGRAM FILES (X86)\MICROSOFT VISUAL STUDIO\2017\COMMUNITY\VC\UNITTEST\INCLUDE" /ZI /JMC /nologo /W3 /WX- /diagnostics:classic /Od /Oy- /D WIN32 /D _DEBUG /D _WINDLL /D _UNICODE /D UNICODE /Gm- /EHsc /RTC1 /MDd /GS /fp:precise /Zc:wchar_t /Zc:forScope /Zc:inline /Yc"stdafx.h" /Fp"DEBUG\PRIMETEST.PCH" /Fo"DEBUG\\" /Fd"DEBUG\VC141.PDB" /Gd /TP /analyze- /FC C:\USERS\RISOVAXA\DOCUMENTS\VISUAL STUDIO 2017\PROJECTS\PRIMES\FINAL\PRIMETEST\STDAFX.CPP
^C:\USERS\RISOVAXA\DOCUMENTS\VISUAL STUDIO 2017\PROJECTS\PRIMES\FINAL\PRIMETEST\UNITTEST1.CPP
/c /I"C:\PROGRAM FILES (X86)\MICROSOFT VISUAL STUDIO\2017\COMMUNITY\VC\UNITTEST\INCLUDE" /ZI /JMC /nologo /W3 /WX- /diagnostics:classic /Od /Oy- /D WIN32 /D _DEBUG /D _WINDLL /D _UNICODE /D UNICODE /Gm- /EHsc /RTC1 /MDd /GS /fp:precise /Zc:wchar_t /Zc:forScope /Zc:inline /Yu"stdafx.h" /Fp"DEBUG\PRIMETEST.PCH" /Fo"DEBUG\\" /Fd"DEBUG\VC141.PDB" /Gd /TP /analyze- /FC C:\USERS\RISOVAXA\DOCUMENTS\VISUAL STUDIO 2017\PROJECTS\PRIMES\FINAL\PRIMETEST\UNITTEST1.CPP
^C:\CODE\PROJECTS\LISTAT_TEST\FINAL\PRIMETEST\STDAFX.CPP
/c /I"C:\PROGRAM FILES (X86)\MICROSOFT VISUAL STUDIO\2017\COMMUNITY\VC\UNITTEST\INCLUDE" /ZI /JMC /nologo /W3 /WX- /diagnostics:classic /Od /Oy- /D WIN32 /D _DEBUG /D _WINDLL /D _UNICODE /D UNICODE /Gm- /EHsc /RTC1 /MDd /GS /fp:precise /Zc:wchar_t /Zc:forScope /Zc:inline /Yc"stdafx.h" /Fp"DEBUG\PRIMETEST.PCH" /Fo"DEBUG\\" /Fd"DEBUG\VC141.PDB" /Gd /TP /analyze- /FC C:\CODE\PROJECTS\LISTAT_TEST\FINAL\PRIMETEST\STDAFX.CPP
^C:\CODE\PROJECTS\LISTAT_TEST\FINAL\PRIMETEST\UNITTEST1.CPP
/c /I"C:\PROGRAM FILES (X86)\MICROSOFT VISUAL STUDIO\2017\COMMUNITY\VC\UNITTEST\INCLUDE" /ZI /JMC /nologo /W3 /WX- /diagnostics:classic /Od /Oy- /D WIN32 /D _DEBUG /D _WINDLL /D _UNICODE /D UNICODE /Gm- /EHsc /RTC1 /MDd /GS /fp:precise /Zc:wchar_t /Zc:forScope /Zc:inline /Yu"stdafx.h" /Fp"DEBUG\PRIMETEST.PCH" /Fo"DEBUG\\" /Fd"DEBUG\VC141.PDB" /Gd /TP /analyze- /FC C:\CODE\PROJECTS\LISTAT_TEST\FINAL\PRIMETEST\UNITTEST1.CPP
